…
아래와 같이 테이블이 생긴 것을 확인

```
D .tables
gdp_actual      gdp_total_info  stg_gdp         stg_gdp_year
```

```
D select * from gdp_total_info;
┌─────────┬───────────────┬───────────────┬──────────────┐
│  year   │  quarter_gdp  │ year_sum_gdp  │ year_avg_gdp │
│ varchar │ decimal(38,1) │ decimal(38,1) │    double    │
├─────────┼───────────────┼───────────────┼──────────────┤
│ 1994    │      446305.8 │     1786154.6 │    446538.65 │
│ 1994    │      443741.1 │     1786154.6 │    446538.65 │
│ 1994    │      448941.7 │     1786154.6 │    446538.65 │
│ 1994    │      447166.0 │     1786154.6 │    446538.65 │
│ 1995    │      452111.3 │     1832946.6 │    458236.65 │
│ 1995    │      456273.3 │     1832946.6 │    458236.65 │
│ 1995    │      461705.6 │     1832946.6 │    458236.65 │
│ 1995    │      462856.4 │     1832946.6 │    458236.65 │
│ 1996    │      466624.0 │     1890717.6 │     472679.4 │
│ 1996    │      472490.5 │     1890717.6 │     472679.4 │
│ 1996    │      473139.9 │     1890717.6 │     472679.4 │
│ 1996    │      478463.2 │     1890717.6 │     472679.4 │
│ 1997    │      479681.6 │     1909896.9 │   477474.225 │
│ 1997    │      476013.9 │     1909896.9 │   477474.225 │
│ 1997    │      477000.1 │     1909896.9 │   477474.225 │
│ 1997    │      477201.3 │     1909896.9 │   477474.225 │
│ 1998    │      471367.0 │     1884729.0 │    471182.25 │
│ 1998    │      469284.2 │     1884729.0 │    471182.25 │
│ 1998    │      470140.8 │     1884729.0 │    471182.25 │
│ 1998    │      473937.0 │     1884729.0 │    471182.25 │
│  ·      │          ·    │         ·     │         ·    │
│  ·      │          ·    │         ·     │         ·    │
│  ·      │          ·    │         ·     │         ·    │
│ 2019    │      557732.0 │     2210661.6 │     552665.4 │
│ 2019    │      557026.8 │     2210661.6 │     552665.4 │
│ 2019    │      540743.9 │     2210661.6 │     552665.4 │
│ 2020    │      543793.2 │     2107831.6 │     526957.9 │
│ 2020    │      500626.7 │     2107831.6 │     526957.9 │
│ 2020    │      527320.3 │     2107831.6 │     526957.9 │
│ 2020    │      536091.4 │     2107831.6 │     526957.9 │
│ 2021    │      534340.0 │     2143690.0 │     535922.5 │
│ 2021    │      536964.5 │     2143690.0 │     535922.5 │
│ 2021    │      533521.7 │     2143690.0 │     535922.5 │
│ 2021    │      538863.8 │     2143690.0 │     535922.5 │
│ 2022    │      539164.8 │     2188253.1 │   547063.275 │
│ 2022    │      545292.3 │     2188253.1 │   547063.275 │
│ 2022    │      550893.0 │     2188253.1 │   547063.275 │
│ 2022    │      552903.0 │     2188253.1 │   547063.275 │
│ 2023    │      559270.9 │     2241114.5 │   560278.625 │
│ 2023    │      564406.4 │     2241114.5 │   560278.625 │
│ 2023    │      558676.3 │     2241114.5 │   560278.625 │
│ 2023    │      558760.9 │     2241114.5 │   560278.625 │
│ 2024    │      554727.9 │      554727.9 │     554727.9 │
├─────────┴───────────────┴───────────────┴──────────────┤
│ 121 rows (40 shown)                          4 columns │
└────────────────────────────────────────────────────────┘
```
